<svg id="Camada_2" data-name="Camada 2" xmlns="http://www.w3.org/2000/svg" width="42" height="35.231" viewBox="0 0 42 35.231">
  <path id="Caminho_109" data-name="Caminho 109" d="M7.964,37.249a7.964,7.964,0,1,0,7.964,7.964A7.964,7.964,0,0,0,7.964,37.249Zm3.209,9.335H9.336v1.838a1.371,1.371,0,1,1-2.743,0V46.584H4.755a1.371,1.371,0,0,1,0-2.743H6.593V42a1.371,1.371,0,0,1,2.743,0v1.838h1.838a1.371,1.371,0,0,1,0,2.743Z" transform="translate(0 -18.498)" fill="#fff"/>
  <path id="Caminho_110" data-name="Caminho 110" d="M43.482,9.964h0L40.3,2.481A3.956,3.956,0,0,0,36.457,0H11.452A3.96,3.96,0,0,0,7.611,2.481L4.431,9.964a9.607,9.607,0,0,0-.48,2.995,5.094,5.094,0,0,0,1.494,3.536,11.161,11.161,0,0,1,11.565,1.6,7.29,7.29,0,0,0,6.946-1.13,7.292,7.292,0,0,0,9,0,7.342,7.342,0,0,0,7.048,1.1,5.618,5.618,0,0,0,3.956-5.108,9.592,9.592,0,0,0-.48-2.995Z" transform="translate(-1.962)" fill="#fff"/>
  <path id="Caminho_111" data-name="Caminho 111" d="M50.467,42.11a9.707,9.707,0,0,1-4.5-1.095,9.808,9.808,0,0,1-9,0,9.8,9.8,0,0,1-4.05,1.077A11.154,11.154,0,0,1,30.143,55.6H48.965a3.746,3.746,0,0,0,4-3.423V41.785a9.826,9.826,0,0,1-2.5.325Z" transform="translate(-14.969 -20.368)" fill="#fff"/>
</svg>
