<svg xmlns="http://www.w3.org/2000/svg" xmlns:xlink="http://www.w3.org/1999/xlink" width="1480" height="498" viewBox="0 0 1480 498">
  <defs>
    <clipPath id="clip-path">
      <rect id="Retângulo_487" data-name="Retângulo 487" width="1480" height="498" rx="10" transform="translate(60 1832)" fill="#220b60"/>
    </clipPath>
    <clipPath id="clip-path-2">
      <rect id="Retângulo_482" data-name="Retângulo 482" width="86.845" height="97.759" fill="#1a004b"/>
    </clipPath>
    <clipPath id="clip-path-50">
      <rect id="Retângulo_485" data-name="Retângulo 485" width="86.845" height="97.759" fill="#8c52ff"/>
    </clipPath>
    <clipPath id="clip-path-51">
      <rect id="Retângulo_486" data-name="Retângulo 486" width="86.845" height="97.759" fill="#fd75be"/>
    </clipPath>
  </defs>
  <g id="Grupo_de_máscara_86" data-name="Grupo de máscara 86" transform="translate(-60 -1832)" clip-path="url(#clip-path)">
    <g id="Grupo_3220" data-name="Grupo 3220">
      <g id="Componente_3_1" data-name="Componente 3 – 1" transform="translate(853 1777)">
        <g id="Grupo_3217" data-name="Grupo 3217" transform="translate(-853 -1777)">
          <g id="Grupo_3169" data-name="Grupo 3169" transform="translate(551 701)" opacity="0.4">
            <g id="Grupo_3166" data-name="Grupo 3166" transform="translate(302 1151)" clip-path="url(#clip-path-2)">
              <path id="Caminho_24" data-name="Caminho 24" d="M48.339,98.883a4.348,4.348,0,0,1-2.177-.584L10.885,77.933a4.355,4.355,0,0,1-2.177-3.772V33.429a4.354,4.354,0,0,1,2.177-3.771L46.162,9.292a4.354,4.354,0,0,1,4.355,0L85.792,29.658a4.355,4.355,0,0,1,2.177,3.771V74.162a4.356,4.356,0,0,1-2.177,3.772L50.516,98.3a4.349,4.349,0,0,1-2.177.584M17.417,71.648,48.339,89.5,79.26,71.648V35.943L48.339,18.091,17.417,35.943Z" transform="translate(-4.916 -4.916)" fill="#1a004b"/>
            </g>
            <g id="Grupo_3166-2" data-name="Grupo 3166" transform="translate(389.145 1151)" clip-path="url(#clip-path-2)">
              <path id="Caminho_24-2" data-name="Caminho 24" d="M48.339,98.883a4.348,4.348,0,0,1-2.177-.584L10.885,77.933a4.355,4.355,0,0,1-2.177-3.772V33.429a4.354,4.354,0,0,1,2.177-3.771L46.162,9.292a4.354,4.354,0,0,1,4.355,0L85.792,29.658a4.355,4.355,0,0,1,2.177,3.771V74.162a4.356,4.356,0,0,1-2.177,3.772L50.516,98.3a4.349,4.349,0,0,1-2.177.584M17.417,71.648,48.339,89.5,79.26,71.648V35.943L48.339,18.091,17.417,35.943Z" transform="translate(-4.916 -4.916)" fill="#1a004b"/>
            </g>
            <g id="Grupo_3166-3" data-name="Grupo 3166" transform="translate(476.291 1151)" clip-path="url(#clip-path-2)">
              <path id="Caminho_24-3" data-name="Caminho 24" d="M48.339,98.883a4.348,4.348,0,0,1-2.177-.584L10.885,77.933a4.355,4.355,0,0,1-2.177-3.772V33.429a4.354,4.354,0,0,1,2.177-3.771L46.162,9.292a4.354,4.354,0,0,1,4.355,0L85.792,29.658a4.355,4.355,0,0,1,2.177,3.771V74.162a4.356,4.356,0,0,1-2.177,3.772L50.516,98.3a4.349,4.349,0,0,1-2.177.584M17.417,71.648,48.339,89.5,79.26,71.648V35.943L48.339,18.091,17.417,35.943Z" transform="translate(-4.916 -4.916)" fill="#1a004b"/>
            </g>
            <g id="Grupo_3166-4" data-name="Grupo 3166" transform="translate(563.436 1151)" clip-path="url(#clip-path-2)">
              <path id="Caminho_24-4" data-name="Caminho 24" d="M48.339,98.883a4.348,4.348,0,0,1-2.177-.584L10.885,77.933a4.355,4.355,0,0,1-2.177-3.772V33.429a4.354,4.354,0,0,1,2.177-3.771L46.162,9.292a4.354,4.354,0,0,1,4.355,0L85.792,29.658a4.355,4.355,0,0,1,2.177,3.771V74.162a4.356,4.356,0,0,1-2.177,3.772L50.516,98.3a4.349,4.349,0,0,1-2.177.584M17.417,71.648,48.339,89.5,79.26,71.648V35.943L48.339,18.091,17.417,35.943Z" transform="translate(-4.916 -4.916)" fill="#1a004b"/>
            </g>
            <g id="Grupo_3166-5" data-name="Grupo 3166" transform="translate(302 1249.039)" clip-path="url(#clip-path-2)">
              <path id="Caminho_24-5" data-name="Caminho 24" d="M48.339,98.883a4.348,4.348,0,0,1-2.177-.584L10.885,77.933a4.355,4.355,0,0,1-2.177-3.772V33.429a4.354,4.354,0,0,1,2.177-3.771L46.162,9.292a4.354,4.354,0,0,1,4.355,0L85.792,29.658a4.355,4.355,0,0,1,2.177,3.771V74.162a4.356,4.356,0,0,1-2.177,3.772L50.516,98.3a4.349,4.349,0,0,1-2.177.584M17.417,71.648,48.339,89.5,79.26,71.648V35.943L48.339,18.091,17.417,35.943Z" transform="translate(-4.916 -4.916)" fill="#1a004b"/>
            </g>
            <g id="Grupo_3166-6" data-name="Grupo 3166" transform="translate(389.145 1249.039)" clip-path="url(#clip-path-2)">
              <path id="Caminho_24-6" data-name="Caminho 24" d="M48.339,98.883a4.348,4.348,0,0,1-2.177-.584L10.885,77.933a4.355,4.355,0,0,1-2.177-3.772V33.429a4.354,4.354,0,0,1,2.177-3.771L46.162,9.292a4.354,4.354,0,0,1,4.355,0L85.792,29.658a4.355,4.355,0,0,1,2.177,3.771V74.162a4.356,4.356,0,0,1-2.177,3.772L50.516,98.3a4.349,4.349,0,0,1-2.177.584M17.417,71.648,48.339,89.5,79.26,71.648V35.943L48.339,18.091,17.417,35.943Z" transform="translate(-4.916 -4.916)" fill="#1a004b"/>
            </g>
            <g id="Grupo_3166-7" data-name="Grupo 3166" transform="translate(476.291 1249.039)" clip-path="url(#clip-path-2)">
              <path id="Caminho_24-7" data-name="Caminho 24" d="M48.339,98.883a4.348,4.348,0,0,1-2.177-.584L10.885,77.933a4.355,4.355,0,0,1-2.177-3.772V33.429a4.354,4.354,0,0,1,2.177-3.771L46.162,9.292a4.354,4.354,0,0,1,4.355,0L85.792,29.658a4.355,4.355,0,0,1,2.177,3.771V74.162a4.356,4.356,0,0,1-2.177,3.772L50.516,98.3a4.349,4.349,0,0,1-2.177.584M17.417,71.648,48.339,89.5,79.26,71.648V35.943L48.339,18.091,17.417,35.943Z" transform="translate(-4.916 -4.916)" fill="#1a004b"/>
            </g>
            <g id="Grupo_3166-8" data-name="Grupo 3166" transform="translate(563.436 1249.039)" clip-path="url(#clip-path-2)">
              <path id="Caminho_24-8" data-name="Caminho 24" d="M48.339,98.883a4.348,4.348,0,0,1-2.177-.584L10.885,77.933a4.355,4.355,0,0,1-2.177-3.772V33.429a4.354,4.354,0,0,1,2.177-3.771L46.162,9.292a4.354,4.354,0,0,1,4.355,0L85.792,29.658a4.355,4.355,0,0,1,2.177,3.771V74.162a4.356,4.356,0,0,1-2.177,3.772L50.516,98.3a4.349,4.349,0,0,1-2.177.584M17.417,71.648,48.339,89.5,79.26,71.648V35.943L48.339,18.091,17.417,35.943Z" transform="translate(-4.916 -4.916)" fill="#1a004b"/>
            </g>
            <g id="Grupo_3166-9" data-name="Grupo 3166" transform="translate(302 1347.077)" clip-path="url(#clip-path-2)">
              <path id="Caminho_24-9" data-name="Caminho 24" d="M48.339,98.883a4.348,4.348,0,0,1-2.177-.584L10.885,77.933a4.355,4.355,0,0,1-2.177-3.772V33.429a4.354,4.354,0,0,1,2.177-3.771L46.162,9.292a4.354,4.354,0,0,1,4.355,0L85.792,29.658a4.355,4.355,0,0,1,2.177,3.771V74.162a4.356,4.356,0,0,1-2.177,3.772L50.516,98.3a4.349,4.349,0,0,1-2.177.584M17.417,71.648,48.339,89.5,79.26,71.648V35.943L48.339,18.091,17.417,35.943Z" transform="translate(-4.916 -4.916)" fill="#1a004b"/>
            </g>
            <g id="Grupo_3166-10" data-name="Grupo 3166" transform="translate(389.145 1347.077)" clip-path="url(#clip-path-2)">
              <path id="Caminho_24-10" data-name="Caminho 24" d="M48.339,98.883a4.348,4.348,0,0,1-2.177-.584L10.885,77.933a4.355,4.355,0,0,1-2.177-3.772V33.429a4.354,4.354,0,0,1,2.177-3.771L46.162,9.292a4.354,4.354,0,0,1,4.355,0L85.792,29.658a4.355,4.355,0,0,1,2.177,3.771V74.162a4.356,4.356,0,0,1-2.177,3.772L50.516,98.3a4.349,4.349,0,0,1-2.177.584M17.417,71.648,48.339,89.5,79.26,71.648V35.943L48.339,18.091,17.417,35.943Z" transform="translate(-4.916 -4.916)" fill="#1a004b"/>
            </g>
            <g id="Grupo_3166-11" data-name="Grupo 3166" transform="translate(476.291 1347.077)" clip-path="url(#clip-path-2)">
              <path id="Caminho_24-11" data-name="Caminho 24" d="M48.339,98.883a4.348,4.348,0,0,1-2.177-.584L10.885,77.933a4.355,4.355,0,0,1-2.177-3.772V33.429a4.354,4.354,0,0,1,2.177-3.771L46.162,9.292a4.354,4.354,0,0,1,4.355,0L85.792,29.658a4.355,4.355,0,0,1,2.177,3.771V74.162a4.356,4.356,0,0,1-2.177,3.772L50.516,98.3a4.349,4.349,0,0,1-2.177.584M17.417,71.648,48.339,89.5,79.26,71.648V35.943L48.339,18.091,17.417,35.943Z" transform="translate(-4.916 -4.916)" fill="#1a004b"/>
            </g>
            <g id="Grupo_3166-12" data-name="Grupo 3166" transform="translate(563.436 1347.077)" clip-path="url(#clip-path-2)">
              <path id="Caminho_24-12" data-name="Caminho 24" d="M48.339,98.883a4.348,4.348,0,0,1-2.177-.584L10.885,77.933a4.355,4.355,0,0,1-2.177-3.772V33.429a4.354,4.354,0,0,1,2.177-3.771L46.162,9.292a4.354,4.354,0,0,1,4.355,0L85.792,29.658a4.355,4.355,0,0,1,2.177,3.771V74.162a4.356,4.356,0,0,1-2.177,3.772L50.516,98.3a4.349,4.349,0,0,1-2.177.584M17.417,71.648,48.339,89.5,79.26,71.648V35.943L48.339,18.091,17.417,35.943Z" transform="translate(-4.916 -4.916)" fill="#1a004b"/>
            </g>
          </g>
          <g id="Grupo_3214" data-name="Grupo 3214" transform="translate(551 1004.836)" opacity="0.4">
            <g id="Grupo_3166-13" data-name="Grupo 3166" transform="translate(302 1151)" clip-path="url(#clip-path-2)">
              <path id="Caminho_24-13" data-name="Caminho 24" d="M48.339,98.883a4.348,4.348,0,0,1-2.177-.584L10.885,77.933a4.355,4.355,0,0,1-2.177-3.772V33.429a4.354,4.354,0,0,1,2.177-3.771L46.162,9.292a4.354,4.354,0,0,1,4.355,0L85.792,29.658a4.355,4.355,0,0,1,2.177,3.771V74.162a4.356,4.356,0,0,1-2.177,3.772L50.516,98.3a4.349,4.349,0,0,1-2.177.584M17.417,71.648,48.339,89.5,79.26,71.648V35.943L48.339,18.091,17.417,35.943Z" transform="translate(-4.916 -4.916)" fill="#1a004b"/>
            </g>
            <g id="Grupo_3166-14" data-name="Grupo 3166" transform="translate(389.145 1151)" clip-path="url(#clip-path-2)">
              <path id="Caminho_24-14" data-name="Caminho 24" d="M48.339,98.883a4.348,4.348,0,0,1-2.177-.584L10.885,77.933a4.355,4.355,0,0,1-2.177-3.772V33.429a4.354,4.354,0,0,1,2.177-3.771L46.162,9.292a4.354,4.354,0,0,1,4.355,0L85.792,29.658a4.355,4.355,0,0,1,2.177,3.771V74.162a4.356,4.356,0,0,1-2.177,3.772L50.516,98.3a4.349,4.349,0,0,1-2.177.584M17.417,71.648,48.339,89.5,79.26,71.648V35.943L48.339,18.091,17.417,35.943Z" transform="translate(-4.916 -4.916)" fill="#1a004b"/>
            </g>
            <g id="Grupo_3166-15" data-name="Grupo 3166" transform="translate(476.291 1151)" clip-path="url(#clip-path-2)">
              <path id="Caminho_24-15" data-name="Caminho 24" d="M48.339,98.883a4.348,4.348,0,0,1-2.177-.584L10.885,77.933a4.355,4.355,0,0,1-2.177-3.772V33.429a4.354,4.354,0,0,1,2.177-3.771L46.162,9.292a4.354,4.354,0,0,1,4.355,0L85.792,29.658a4.355,4.355,0,0,1,2.177,3.771V74.162a4.356,4.356,0,0,1-2.177,3.772L50.516,98.3a4.349,4.349,0,0,1-2.177.584M17.417,71.648,48.339,89.5,79.26,71.648V35.943L48.339,18.091,17.417,35.943Z" transform="translate(-4.916 -4.916)" fill="#1a004b"/>
            </g>
            <g id="Grupo_3166-16" data-name="Grupo 3166" transform="translate(563.436 1151)" clip-path="url(#clip-path-2)">
              <path id="Caminho_24-16" data-name="Caminho 24" d="M48.339,98.883a4.348,4.348,0,0,1-2.177-.584L10.885,77.933a4.355,4.355,0,0,1-2.177-3.772V33.429a4.354,4.354,0,0,1,2.177-3.771L46.162,9.292a4.354,4.354,0,0,1,4.355,0L85.792,29.658a4.355,4.355,0,0,1,2.177,3.771V74.162a4.356,4.356,0,0,1-2.177,3.772L50.516,98.3a4.349,4.349,0,0,1-2.177.584M17.417,71.648,48.339,89.5,79.26,71.648V35.943L48.339,18.091,17.417,35.943Z" transform="translate(-4.916 -4.916)" fill="#1a004b"/>
            </g>
            <g id="Grupo_3166-17" data-name="Grupo 3166" transform="translate(302 1249.039)" clip-path="url(#clip-path-2)">
              <path id="Caminho_24-17" data-name="Caminho 24" d="M48.339,98.883a4.348,4.348,0,0,1-2.177-.584L10.885,77.933a4.355,4.355,0,0,1-2.177-3.772V33.429a4.354,4.354,0,0,1,2.177-3.771L46.162,9.292a4.354,4.354,0,0,1,4.355,0L85.792,29.658a4.355,4.355,0,0,1,2.177,3.771V74.162a4.356,4.356,0,0,1-2.177,3.772L50.516,98.3a4.349,4.349,0,0,1-2.177.584M17.417,71.648,48.339,89.5,79.26,71.648V35.943L48.339,18.091,17.417,35.943Z" transform="translate(-4.916 -4.916)" fill="#1a004b"/>
            </g>
            <g id="Grupo_3166-18" data-name="Grupo 3166" transform="translate(389.145 1249.039)" clip-path="url(#clip-path-2)">
              <path id="Caminho_24-18" data-name="Caminho 24" d="M48.339,98.883a4.348,4.348,0,0,1-2.177-.584L10.885,77.933a4.355,4.355,0,0,1-2.177-3.772V33.429a4.354,4.354,0,0,1,2.177-3.771L46.162,9.292a4.354,4.354,0,0,1,4.355,0L85.792,29.658a4.355,4.355,0,0,1,2.177,3.771V74.162a4.356,4.356,0,0,1-2.177,3.772L50.516,98.3a4.349,4.349,0,0,1-2.177.584M17.417,71.648,48.339,89.5,79.26,71.648V35.943L48.339,18.091,17.417,35.943Z" transform="translate(-4.916 -4.916)" fill="#1a004b"/>
            </g>
            <g id="Grupo_3166-19" data-name="Grupo 3166" transform="translate(476.291 1249.039)" clip-path="url(#clip-path-2)">
              <path id="Caminho_24-19" data-name="Caminho 24" d="M48.339,98.883a4.348,4.348,0,0,1-2.177-.584L10.885,77.933a4.355,4.355,0,0,1-2.177-3.772V33.429a4.354,4.354,0,0,1,2.177-3.771L46.162,9.292a4.354,4.354,0,0,1,4.355,0L85.792,29.658a4.355,4.355,0,0,1,2.177,3.771V74.162a4.356,4.356,0,0,1-2.177,3.772L50.516,98.3a4.349,4.349,0,0,1-2.177.584M17.417,71.648,48.339,89.5,79.26,71.648V35.943L48.339,18.091,17.417,35.943Z" transform="translate(-4.916 -4.916)" fill="#1a004b"/>
            </g>
            <g id="Grupo_3166-20" data-name="Grupo 3166" transform="translate(563.436 1249.039)" clip-path="url(#clip-path-2)">
              <path id="Caminho_24-20" data-name="Caminho 24" d="M48.339,98.883a4.348,4.348,0,0,1-2.177-.584L10.885,77.933a4.355,4.355,0,0,1-2.177-3.772V33.429a4.354,4.354,0,0,1,2.177-3.771L46.162,9.292a4.354,4.354,0,0,1,4.355,0L85.792,29.658a4.355,4.355,0,0,1,2.177,3.771V74.162a4.356,4.356,0,0,1-2.177,3.772L50.516,98.3a4.349,4.349,0,0,1-2.177.584M17.417,71.648,48.339,89.5,79.26,71.648V35.943L48.339,18.091,17.417,35.943Z" transform="translate(-4.916 -4.916)" fill="#1a004b"/>
            </g>
            <g id="Grupo_3166-21" data-name="Grupo 3166" transform="translate(302 1347.077)" clip-path="url(#clip-path-2)">
              <path id="Caminho_24-21" data-name="Caminho 24" d="M48.339,98.883a4.348,4.348,0,0,1-2.177-.584L10.885,77.933a4.355,4.355,0,0,1-2.177-3.772V33.429a4.354,4.354,0,0,1,2.177-3.771L46.162,9.292a4.354,4.354,0,0,1,4.355,0L85.792,29.658a4.355,4.355,0,0,1,2.177,3.771V74.162a4.356,4.356,0,0,1-2.177,3.772L50.516,98.3a4.349,4.349,0,0,1-2.177.584M17.417,71.648,48.339,89.5,79.26,71.648V35.943L48.339,18.091,17.417,35.943Z" transform="translate(-4.916 -4.916)" fill="#1a004b"/>
            </g>
            <g id="Grupo_3166-22" data-name="Grupo 3166" transform="translate(389.145 1347.077)" clip-path="url(#clip-path-2)">
              <path id="Caminho_24-22" data-name="Caminho 24" d="M48.339,98.883a4.348,4.348,0,0,1-2.177-.584L10.885,77.933a4.355,4.355,0,0,1-2.177-3.772V33.429a4.354,4.354,0,0,1,2.177-3.771L46.162,9.292a4.354,4.354,0,0,1,4.355,0L85.792,29.658a4.355,4.355,0,0,1,2.177,3.771V74.162a4.356,4.356,0,0,1-2.177,3.772L50.516,98.3a4.349,4.349,0,0,1-2.177.584M17.417,71.648,48.339,89.5,79.26,71.648V35.943L48.339,18.091,17.417,35.943Z" transform="translate(-4.916 -4.916)" fill="#1a004b"/>
            </g>
            <g id="Grupo_3166-23" data-name="Grupo 3166" transform="translate(476.291 1347.077)" clip-path="url(#clip-path-2)">
              <path id="Caminho_24-23" data-name="Caminho 24" d="M48.339,98.883a4.348,4.348,0,0,1-2.177-.584L10.885,77.933a4.355,4.355,0,0,1-2.177-3.772V33.429a4.354,4.354,0,0,1,2.177-3.771L46.162,9.292a4.354,4.354,0,0,1,4.355,0L85.792,29.658a4.355,4.355,0,0,1,2.177,3.771V74.162a4.356,4.356,0,0,1-2.177,3.772L50.516,98.3a4.349,4.349,0,0,1-2.177.584M17.417,71.648,48.339,89.5,79.26,71.648V35.943L48.339,18.091,17.417,35.943Z" transform="translate(-4.916 -4.916)" fill="#1a004b"/>
            </g>
            <g id="Grupo_3166-24" data-name="Grupo 3166" transform="translate(563.436 1347.077)" clip-path="url(#clip-path-2)">
              <path id="Caminho_24-24" data-name="Caminho 24" d="M48.339,98.883a4.348,4.348,0,0,1-2.177-.584L10.885,77.933a4.355,4.355,0,0,1-2.177-3.772V33.429a4.354,4.354,0,0,1,2.177-3.771L46.162,9.292a4.354,4.354,0,0,1,4.355,0L85.792,29.658a4.355,4.355,0,0,1,2.177,3.771V74.162a4.356,4.356,0,0,1-2.177,3.772L50.516,98.3a4.349,4.349,0,0,1-2.177.584M17.417,71.648,48.339,89.5,79.26,71.648V35.943L48.339,18.091,17.417,35.943Z" transform="translate(-4.916 -4.916)" fill="#1a004b"/>
            </g>
          </g>
          <g id="Grupo_3215" data-name="Grupo 3215" transform="translate(909.719 626)" opacity="0.4">
            <g id="Grupo_3166-25" data-name="Grupo 3166" transform="translate(302 1151)" clip-path="url(#clip-path-2)">
              <path id="Caminho_24-25" data-name="Caminho 24" d="M48.339,98.883a4.348,4.348,0,0,1-2.177-.584L10.885,77.933a4.355,4.355,0,0,1-2.177-3.772V33.429a4.354,4.354,0,0,1,2.177-3.771L46.162,9.292a4.354,4.354,0,0,1,4.355,0L85.792,29.658a4.355,4.355,0,0,1,2.177,3.771V74.162a4.356,4.356,0,0,1-2.177,3.772L50.516,98.3a4.349,4.349,0,0,1-2.177.584M17.417,71.648,48.339,89.5,79.26,71.648V35.943L48.339,18.091,17.417,35.943Z" transform="translate(-4.916 -4.916)" fill="#1a004b"/>
            </g>
            <g id="Grupo_3166-26" data-name="Grupo 3166" transform="translate(389.145 1151)" clip-path="url(#clip-path-2)">
              <path id="Caminho_24-26" data-name="Caminho 24" d="M48.339,98.883a4.348,4.348,0,0,1-2.177-.584L10.885,77.933a4.355,4.355,0,0,1-2.177-3.772V33.429a4.354,4.354,0,0,1,2.177-3.771L46.162,9.292a4.354,4.354,0,0,1,4.355,0L85.792,29.658a4.355,4.355,0,0,1,2.177,3.771V74.162a4.356,4.356,0,0,1-2.177,3.772L50.516,98.3a4.349,4.349,0,0,1-2.177.584M17.417,71.648,48.339,89.5,79.26,71.648V35.943L48.339,18.091,17.417,35.943Z" transform="translate(-4.916 -4.916)" fill="#1a004b"/>
            </g>
            <g id="Grupo_3166-27" data-name="Grupo 3166" transform="translate(476.291 1151)" clip-path="url(#clip-path-2)">
              <path id="Caminho_24-27" data-name="Caminho 24" d="M48.339,98.883a4.348,4.348,0,0,1-2.177-.584L10.885,77.933a4.355,4.355,0,0,1-2.177-3.772V33.429a4.354,4.354,0,0,1,2.177-3.771L46.162,9.292a4.354,4.354,0,0,1,4.355,0L85.792,29.658a4.355,4.355,0,0,1,2.177,3.771V74.162a4.356,4.356,0,0,1-2.177,3.772L50.516,98.3a4.349,4.349,0,0,1-2.177.584M17.417,71.648,48.339,89.5,79.26,71.648V35.943L48.339,18.091,17.417,35.943Z" transform="translate(-4.916 -4.916)" fill="#1a004b"/>
            </g>
            <g id="Grupo_3166-28" data-name="Grupo 3166" transform="translate(563.436 1151)" clip-path="url(#clip-path-2)">
              <path id="Caminho_24-28" data-name="Caminho 24" d="M48.339,98.883a4.348,4.348,0,0,1-2.177-.584L10.885,77.933a4.355,4.355,0,0,1-2.177-3.772V33.429a4.354,4.354,0,0,1,2.177-3.771L46.162,9.292a4.354,4.354,0,0,1,4.355,0L85.792,29.658a4.355,4.355,0,0,1,2.177,3.771V74.162a4.356,4.356,0,0,1-2.177,3.772L50.516,98.3a4.349,4.349,0,0,1-2.177.584M17.417,71.648,48.339,89.5,79.26,71.648V35.943L48.339,18.091,17.417,35.943Z" transform="translate(-4.916 -4.916)" fill="#1a004b"/>
            </g>
            <g id="Grupo_3166-29" data-name="Grupo 3166" transform="translate(302 1249.039)" clip-path="url(#clip-path-2)">
              <path id="Caminho_24-29" data-name="Caminho 24" d="M48.339,98.883a4.348,4.348,0,0,1-2.177-.584L10.885,77.933a4.355,4.355,0,0,1-2.177-3.772V33.429a4.354,4.354,0,0,1,2.177-3.771L46.162,9.292a4.354,4.354,0,0,1,4.355,0L85.792,29.658a4.355,4.355,0,0,1,2.177,3.771V74.162a4.356,4.356,0,0,1-2.177,3.772L50.516,98.3a4.349,4.349,0,0,1-2.177.584M17.417,71.648,48.339,89.5,79.26,71.648V35.943L48.339,18.091,17.417,35.943Z" transform="translate(-4.916 -4.916)" fill="#1a004b"/>
            </g>
            <g id="Grupo_3166-30" data-name="Grupo 3166" transform="translate(389.145 1249.039)" clip-path="url(#clip-path-2)">
              <path id="Caminho_24-30" data-name="Caminho 24" d="M48.339,98.883a4.348,4.348,0,0,1-2.177-.584L10.885,77.933a4.355,4.355,0,0,1-2.177-3.772V33.429a4.354,4.354,0,0,1,2.177-3.771L46.162,9.292a4.354,4.354,0,0,1,4.355,0L85.792,29.658a4.355,4.355,0,0,1,2.177,3.771V74.162a4.356,4.356,0,0,1-2.177,3.772L50.516,98.3a4.349,4.349,0,0,1-2.177.584M17.417,71.648,48.339,89.5,79.26,71.648V35.943L48.339,18.091,17.417,35.943Z" transform="translate(-4.916 -4.916)" fill="#1a004b"/>
            </g>
            <g id="Grupo_3166-31" data-name="Grupo 3166" transform="translate(476.291 1249.039)" clip-path="url(#clip-path-2)">
              <path id="Caminho_24-31" data-name="Caminho 24" d="M48.339,98.883a4.348,4.348,0,0,1-2.177-.584L10.885,77.933a4.355,4.355,0,0,1-2.177-3.772V33.429a4.354,4.354,0,0,1,2.177-3.771L46.162,9.292a4.354,4.354,0,0,1,4.355,0L85.792,29.658a4.355,4.355,0,0,1,2.177,3.771V74.162a4.356,4.356,0,0,1-2.177,3.772L50.516,98.3a4.349,4.349,0,0,1-2.177.584M17.417,71.648,48.339,89.5,79.26,71.648V35.943L48.339,18.091,17.417,35.943Z" transform="translate(-4.916 -4.916)" fill="#1a004b"/>
            </g>
            <g id="Grupo_3166-32" data-name="Grupo 3166" transform="translate(563.436 1249.039)" clip-path="url(#clip-path-2)">
              <path id="Caminho_24-32" data-name="Caminho 24" d="M48.339,98.883a4.348,4.348,0,0,1-2.177-.584L10.885,77.933a4.355,4.355,0,0,1-2.177-3.772V33.429a4.354,4.354,0,0,1,2.177-3.771L46.162,9.292a4.354,4.354,0,0,1,4.355,0L85.792,29.658a4.355,4.355,0,0,1,2.177,3.771V74.162a4.356,4.356,0,0,1-2.177,3.772L50.516,98.3a4.349,4.349,0,0,1-2.177.584M17.417,71.648,48.339,89.5,79.26,71.648V35.943L48.339,18.091,17.417,35.943Z" transform="translate(-4.916 -4.916)" fill="#1a004b"/>
            </g>
            <g id="Grupo_3166-33" data-name="Grupo 3166" transform="translate(302 1347.077)" clip-path="url(#clip-path-2)">
              <path id="Caminho_24-33" data-name="Caminho 24" d="M48.339,98.883a4.348,4.348,0,0,1-2.177-.584L10.885,77.933a4.355,4.355,0,0,1-2.177-3.772V33.429a4.354,4.354,0,0,1,2.177-3.771L46.162,9.292a4.354,4.354,0,0,1,4.355,0L85.792,29.658a4.355,4.355,0,0,1,2.177,3.771V74.162a4.356,4.356,0,0,1-2.177,3.772L50.516,98.3a4.349,4.349,0,0,1-2.177.584M17.417,71.648,48.339,89.5,79.26,71.648V35.943L48.339,18.091,17.417,35.943Z" transform="translate(-4.916 -4.916)" fill="#1a004b"/>
            </g>
            <g id="Grupo_3166-34" data-name="Grupo 3166" transform="translate(389.145 1347.077)" clip-path="url(#clip-path-2)">
              <path id="Caminho_24-34" data-name="Caminho 24" d="M48.339,98.883a4.348,4.348,0,0,1-2.177-.584L10.885,77.933a4.355,4.355,0,0,1-2.177-3.772V33.429a4.354,4.354,0,0,1,2.177-3.771L46.162,9.292a4.354,4.354,0,0,1,4.355,0L85.792,29.658a4.355,4.355,0,0,1,2.177,3.771V74.162a4.356,4.356,0,0,1-2.177,3.772L50.516,98.3a4.349,4.349,0,0,1-2.177.584M17.417,71.648,48.339,89.5,79.26,71.648V35.943L48.339,18.091,17.417,35.943Z" transform="translate(-4.916 -4.916)" fill="#1a004b"/>
            </g>
            <g id="Grupo_3166-35" data-name="Grupo 3166" transform="translate(476.291 1347.077)" clip-path="url(#clip-path-2)">
              <path id="Caminho_24-35" data-name="Caminho 24" d="M48.339,98.883a4.348,4.348,0,0,1-2.177-.584L10.885,77.933a4.355,4.355,0,0,1-2.177-3.772V33.429a4.354,4.354,0,0,1,2.177-3.771L46.162,9.292a4.354,4.354,0,0,1,4.355,0L85.792,29.658a4.355,4.355,0,0,1,2.177,3.771V74.162a4.356,4.356,0,0,1-2.177,3.772L50.516,98.3a4.349,4.349,0,0,1-2.177.584M17.417,71.648,48.339,89.5,79.26,71.648V35.943L48.339,18.091,17.417,35.943Z" transform="translate(-4.916 -4.916)" fill="#1a004b"/>
            </g>
            <g id="Grupo_3166-36" data-name="Grupo 3166" transform="translate(563.436 1347.077)" clip-path="url(#clip-path-2)">
              <path id="Caminho_24-36" data-name="Caminho 24" d="M48.339,98.883a4.348,4.348,0,0,1-2.177-.584L10.885,77.933a4.355,4.355,0,0,1-2.177-3.772V33.429a4.354,4.354,0,0,1,2.177-3.771L46.162,9.292a4.354,4.354,0,0,1,4.355,0L85.792,29.658a4.355,4.355,0,0,1,2.177,3.771V74.162a4.356,4.356,0,0,1-2.177,3.772L50.516,98.3a4.349,4.349,0,0,1-2.177.584M17.417,71.648,48.339,89.5,79.26,71.648V35.943L48.339,18.091,17.417,35.943Z" transform="translate(-4.916 -4.916)" fill="#1a004b"/>
            </g>
          </g>
          <g id="Grupo_3216" data-name="Grupo 3216" transform="translate(909.719 929.836)" opacity="0.4">
            <g id="Grupo_3166-37" data-name="Grupo 3166" transform="translate(302 1151)" clip-path="url(#clip-path-2)">
              <path id="Caminho_24-37" data-name="Caminho 24" d="M48.339,98.883a4.348,4.348,0,0,1-2.177-.584L10.885,77.933a4.355,4.355,0,0,1-2.177-3.772V33.429a4.354,4.354,0,0,1,2.177-3.771L46.162,9.292a4.354,4.354,0,0,1,4.355,0L85.792,29.658a4.355,4.355,0,0,1,2.177,3.771V74.162a4.356,4.356,0,0,1-2.177,3.772L50.516,98.3a4.349,4.349,0,0,1-2.177.584M17.417,71.648,48.339,89.5,79.26,71.648V35.943L48.339,18.091,17.417,35.943Z" transform="translate(-4.916 -4.916)" fill="#1a004b"/>
            </g>
            <g id="Grupo_3166-38" data-name="Grupo 3166" transform="translate(389.145 1151)" clip-path="url(#clip-path-2)">
              <path id="Caminho_24-38" data-name="Caminho 24" d="M48.339,98.883a4.348,4.348,0,0,1-2.177-.584L10.885,77.933a4.355,4.355,0,0,1-2.177-3.772V33.429a4.354,4.354,0,0,1,2.177-3.771L46.162,9.292a4.354,4.354,0,0,1,4.355,0L85.792,29.658a4.355,4.355,0,0,1,2.177,3.771V74.162a4.356,4.356,0,0,1-2.177,3.772L50.516,98.3a4.349,4.349,0,0,1-2.177.584M17.417,71.648,48.339,89.5,79.26,71.648V35.943L48.339,18.091,17.417,35.943Z" transform="translate(-4.916 -4.916)" fill="#1a004b"/>
            </g>
            <g id="Grupo_3166-39" data-name="Grupo 3166" transform="translate(476.291 1151)" clip-path="url(#clip-path-2)">
              <path id="Caminho_24-39" data-name="Caminho 24" d="M48.339,98.883a4.348,4.348,0,0,1-2.177-.584L10.885,77.933a4.355,4.355,0,0,1-2.177-3.772V33.429a4.354,4.354,0,0,1,2.177-3.771L46.162,9.292a4.354,4.354,0,0,1,4.355,0L85.792,29.658a4.355,4.355,0,0,1,2.177,3.771V74.162a4.356,4.356,0,0,1-2.177,3.772L50.516,98.3a4.349,4.349,0,0,1-2.177.584M17.417,71.648,48.339,89.5,79.26,71.648V35.943L48.339,18.091,17.417,35.943Z" transform="translate(-4.916 -4.916)" fill="#1a004b"/>
            </g>
            <g id="Grupo_3166-40" data-name="Grupo 3166" transform="translate(563.436 1151)" clip-path="url(#clip-path-2)">
              <path id="Caminho_24-40" data-name="Caminho 24" d="M48.339,98.883a4.348,4.348,0,0,1-2.177-.584L10.885,77.933a4.355,4.355,0,0,1-2.177-3.772V33.429a4.354,4.354,0,0,1,2.177-3.771L46.162,9.292a4.354,4.354,0,0,1,4.355,0L85.792,29.658a4.355,4.355,0,0,1,2.177,3.771V74.162a4.356,4.356,0,0,1-2.177,3.772L50.516,98.3a4.349,4.349,0,0,1-2.177.584M17.417,71.648,48.339,89.5,79.26,71.648V35.943L48.339,18.091,17.417,35.943Z" transform="translate(-4.916 -4.916)" fill="#1a004b"/>
            </g>
            <g id="Grupo_3166-41" data-name="Grupo 3166" transform="translate(302 1249.039)" clip-path="url(#clip-path-2)">
              <path id="Caminho_24-41" data-name="Caminho 24" d="M48.339,98.883a4.348,4.348,0,0,1-2.177-.584L10.885,77.933a4.355,4.355,0,0,1-2.177-3.772V33.429a4.354,4.354,0,0,1,2.177-3.771L46.162,9.292a4.354,4.354,0,0,1,4.355,0L85.792,29.658a4.355,4.355,0,0,1,2.177,3.771V74.162a4.356,4.356,0,0,1-2.177,3.772L50.516,98.3a4.349,4.349,0,0,1-2.177.584M17.417,71.648,48.339,89.5,79.26,71.648V35.943L48.339,18.091,17.417,35.943Z" transform="translate(-4.916 -4.916)" fill="#1a004b"/>
            </g>
            <g id="Grupo_3166-42" data-name="Grupo 3166" transform="translate(389.145 1249.039)" clip-path="url(#clip-path-2)">
              <path id="Caminho_24-42" data-name="Caminho 24" d="M48.339,98.883a4.348,4.348,0,0,1-2.177-.584L10.885,77.933a4.355,4.355,0,0,1-2.177-3.772V33.429a4.354,4.354,0,0,1,2.177-3.771L46.162,9.292a4.354,4.354,0,0,1,4.355,0L85.792,29.658a4.355,4.355,0,0,1,2.177,3.771V74.162a4.356,4.356,0,0,1-2.177,3.772L50.516,98.3a4.349,4.349,0,0,1-2.177.584M17.417,71.648,48.339,89.5,79.26,71.648V35.943L48.339,18.091,17.417,35.943Z" transform="translate(-4.916 -4.916)" fill="#1a004b"/>
            </g>
            <g id="Grupo_3166-43" data-name="Grupo 3166" transform="translate(476.291 1249.039)" clip-path="url(#clip-path-2)">
              <path id="Caminho_24-43" data-name="Caminho 24" d="M48.339,98.883a4.348,4.348,0,0,1-2.177-.584L10.885,77.933a4.355,4.355,0,0,1-2.177-3.772V33.429a4.354,4.354,0,0,1,2.177-3.771L46.162,9.292a4.354,4.354,0,0,1,4.355,0L85.792,29.658a4.355,4.355,0,0,1,2.177,3.771V74.162a4.356,4.356,0,0,1-2.177,3.772L50.516,98.3a4.349,4.349,0,0,1-2.177.584M17.417,71.648,48.339,89.5,79.26,71.648V35.943L48.339,18.091,17.417,35.943Z" transform="translate(-4.916 -4.916)" fill="#1a004b"/>
            </g>
            <g id="Grupo_3166-44" data-name="Grupo 3166" transform="translate(563.436 1249.039)" clip-path="url(#clip-path-2)">
              <path id="Caminho_24-44" data-name="Caminho 24" d="M48.339,98.883a4.348,4.348,0,0,1-2.177-.584L10.885,77.933a4.355,4.355,0,0,1-2.177-3.772V33.429a4.354,4.354,0,0,1,2.177-3.771L46.162,9.292a4.354,4.354,0,0,1,4.355,0L85.792,29.658a4.355,4.355,0,0,1,2.177,3.771V74.162a4.356,4.356,0,0,1-2.177,3.772L50.516,98.3a4.349,4.349,0,0,1-2.177.584M17.417,71.648,48.339,89.5,79.26,71.648V35.943L48.339,18.091,17.417,35.943Z" transform="translate(-4.916 -4.916)" fill="#1a004b"/>
            </g>
            <g id="Grupo_3166-45" data-name="Grupo 3166" transform="translate(302 1347.077)" clip-path="url(#clip-path-2)">
              <path id="Caminho_24-45" data-name="Caminho 24" d="M48.339,98.883a4.348,4.348,0,0,1-2.177-.584L10.885,77.933a4.355,4.355,0,0,1-2.177-3.772V33.429a4.354,4.354,0,0,1,2.177-3.771L46.162,9.292a4.354,4.354,0,0,1,4.355,0L85.792,29.658a4.355,4.355,0,0,1,2.177,3.771V74.162a4.356,4.356,0,0,1-2.177,3.772L50.516,98.3a4.349,4.349,0,0,1-2.177.584M17.417,71.648,48.339,89.5,79.26,71.648V35.943L48.339,18.091,17.417,35.943Z" transform="translate(-4.916 -4.916)" fill="#1a004b"/>
            </g>
            <g id="Grupo_3166-46" data-name="Grupo 3166" transform="translate(389.145 1347.077)" clip-path="url(#clip-path-2)">
              <path id="Caminho_24-46" data-name="Caminho 24" d="M48.339,98.883a4.348,4.348,0,0,1-2.177-.584L10.885,77.933a4.355,4.355,0,0,1-2.177-3.772V33.429a4.354,4.354,0,0,1,2.177-3.771L46.162,9.292a4.354,4.354,0,0,1,4.355,0L85.792,29.658a4.355,4.355,0,0,1,2.177,3.771V74.162a4.356,4.356,0,0,1-2.177,3.772L50.516,98.3a4.349,4.349,0,0,1-2.177.584M17.417,71.648,48.339,89.5,79.26,71.648V35.943L48.339,18.091,17.417,35.943Z" transform="translate(-4.916 -4.916)" fill="#1a004b"/>
            </g>
            <g id="Grupo_3166-47" data-name="Grupo 3166" transform="translate(476.291 1347.077)" clip-path="url(#clip-path-2)">
              <path id="Caminho_24-47" data-name="Caminho 24" d="M48.339,98.883a4.348,4.348,0,0,1-2.177-.584L10.885,77.933a4.355,4.355,0,0,1-2.177-3.772V33.429a4.354,4.354,0,0,1,2.177-3.771L46.162,9.292a4.354,4.354,0,0,1,4.355,0L85.792,29.658a4.355,4.355,0,0,1,2.177,3.771V74.162a4.356,4.356,0,0,1-2.177,3.772L50.516,98.3a4.349,4.349,0,0,1-2.177.584M17.417,71.648,48.339,89.5,79.26,71.648V35.943L48.339,18.091,17.417,35.943Z" transform="translate(-4.916 -4.916)" fill="#1a004b"/>
            </g>
            <g id="Grupo_3166-48" data-name="Grupo 3166" transform="translate(563.436 1347.077)" clip-path="url(#clip-path-2)">
              <path id="Caminho_24-48" data-name="Caminho 24" d="M48.339,98.883a4.348,4.348,0,0,1-2.177-.584L10.885,77.933a4.355,4.355,0,0,1-2.177-3.772V33.429a4.354,4.354,0,0,1,2.177-3.771L46.162,9.292a4.354,4.354,0,0,1,4.355,0L85.792,29.658a4.355,4.355,0,0,1,2.177,3.771V74.162a4.356,4.356,0,0,1-2.177,3.772L50.516,98.3a4.349,4.349,0,0,1-2.177.584M17.417,71.648,48.339,89.5,79.26,71.648V35.943L48.339,18.091,17.417,35.943Z" transform="translate(-4.916 -4.916)" fill="#1a004b"/>
            </g>
          </g>
        </g>
        <g id="Grupo_3218" data-name="Grupo 3218" transform="translate(261.437 173.039)" clip-path="url(#clip-path-50)">
          <path id="Caminho_26" data-name="Caminho 26" d="M48.339,98.883a4.348,4.348,0,0,1-2.177-.584L10.885,77.933a4.355,4.355,0,0,1-2.177-3.772V33.429a4.354,4.354,0,0,1,2.177-3.771L46.162,9.292a4.354,4.354,0,0,1,4.355,0L85.792,29.658a4.355,4.355,0,0,1,2.177,3.771V74.162a4.356,4.356,0,0,1-2.177,3.772L50.516,98.3a4.349,4.349,0,0,1-2.177.584M17.417,71.648,48.339,89.5,79.26,71.648V35.943L48.339,18.091,17.417,35.943Z" transform="translate(-4.916 -4.916)" fill="#8c52ff"/>
        </g>
        <g id="Grupo_3219" data-name="Grupo 3219" transform="translate(533.01 303.836)" clip-path="url(#clip-path-51)">
          <path id="Caminho_27" data-name="Caminho 27" d="M48.339,98.883a4.348,4.348,0,0,1-2.177-.584L10.885,77.933a4.355,4.355,0,0,1-2.177-3.772V33.429a4.354,4.354,0,0,1,2.177-3.771L46.162,9.292a4.354,4.354,0,0,1,4.355,0L85.792,29.658a4.355,4.355,0,0,1,2.177,3.771V74.162a4.356,4.356,0,0,1-2.177,3.772L50.516,98.3a4.349,4.349,0,0,1-2.177.584M17.417,71.648,48.339,89.5,79.26,71.648V35.943L48.339,18.091,17.417,35.943Z" transform="translate(-4.916 -4.916)" fill="#fd75be"/>
        </g>
      </g>
    </g>
  </g>
</svg>
