<svg id="Grupo_3293" data-name="Grupo 3293" xmlns="http://www.w3.org/2000/svg" xmlns:xlink="http://www.w3.org/1999/xlink" width="18.375" height="21" viewBox="0 0 18.375 21">
  <defs>
    <clipPath id="clip-path">
      <rect id="Retângulo_2314" data-name="Retângulo 2314" width="18.375" height="21" fill="#fff"/>
    </clipPath>
  </defs>
  <g id="Grupo_3650" data-name="Grupo 3650" transform="translate(0 0)" clip-path="url(#clip-path)">
    <path id="Caminho_125" data-name="Caminho 125" d="M17.062,0H1.312A1.312,1.312,0,0,0,0,1.313V18.375A2.625,2.625,0,0,0,2.625,21H17.062a1.312,1.312,0,0,0,1.313-1.313V1.313A1.312,1.312,0,0,0,17.062,0M15.75,18H3.937A1.456,1.456,0,0,1,2.625,16.43a1.456,1.456,0,0,1,1.313-1.567H15.75Z" transform="translate(0 0)" fill="#fff"/>
  </g>
</svg>
