<svg xmlns="http://www.w3.org/2000/svg" xmlns:xlink="http://www.w3.org/1999/xlink" width="18" height="18" viewBox="0 0 18 18">
  <defs>
    <clipPath id="clip-path">
      <rect id="Retângulo_2318" data-name="Retângulo 2318" width="18" height="18" fill="none"/>
    </clipPath>
  </defs>
  <g id="Grupo_3666" data-name="Grupo 3666" transform="translate(0 0)">
    <g id="Grupo_3665" data-name="Grupo 3665" transform="translate(0 0)" clip-path="url(#clip-path)">
      <path id="Caminho_129" data-name="Caminho 129" d="M56.072,56.981H49.864A.864.864,0,0,1,49,56.117v-6.2a.864.864,0,0,1,.864-.863h6.208a.864.864,0,0,1,.864.863v6.2a.864.864,0,0,1-.864.863" transform="translate(-38.936 -38.98)" fill="#fff"/>
      <path id="Caminho_130" data-name="Caminho 130" d="M55.316,8.016h-5.43a1.3,1.3,0,0,1-1.295-1.294V1.294A1.3,1.3,0,0,1,49.886,0h5.43a1.3,1.3,0,0,1,1.295,1.294V6.721a1.3,1.3,0,0,1-1.295,1.294m-5.43-6.937a.216.216,0,0,0-.216.216V6.721a.216.216,0,0,0,.216.216h5.43a.216.216,0,0,0,.216-.216V1.294a.216.216,0,0,0-.216-.216Z" transform="translate(-38.611 0)" fill="#fff"/>
      <path id="Caminho_131" data-name="Caminho 131" d="M7.072,56.981H.864A.864.864,0,0,1,0,56.117v-6.2a.864.864,0,0,1,.864-.863H7.072a.864.864,0,0,1,.864.863v6.2a.864.864,0,0,1-.864.863" transform="translate(0 -38.98)" fill="#fff"/>
      <path id="Caminho_132" data-name="Caminho 132" d="M7.072,8.137H.864A.864.864,0,0,1,0,7.273v-6.2A.864.864,0,0,1,.864.205H7.072a.864.864,0,0,1,.864.863v6.2a.864.864,0,0,1-.864.863" transform="translate(0 -0.163)" fill="#fff"/>
    </g>
  </g>
</svg>
