<svg xmlns="http://www.w3.org/2000/svg" xmlns:xlink="http://www.w3.org/1999/xlink" width="76.535" height="76.497" viewBox="0 0 76.535 76.497">
  <defs>
    <clipPath id="clip-path">
      <rect id="Retângulo_2311" data-name="Retângulo 2311" width="76.535" height="76.497" transform="translate(0 0)" fill="none"/>
    </clipPath>
  </defs>
  <g id="Grupo_3645" data-name="Grupo 3645" transform="translate(0 0)">
    <g id="Grupo_3644" data-name="Grupo 3644" clip-path="url(#clip-path)">
      <path id="Caminho_117" data-name="Caminho 117" d="M57.4,0H19.134A19.1,19.1,0,0,0,0,19.057V45.768A19.1,19.1,0,0,0,19.134,64.825h5.74a4.405,4.405,0,0,1,3.061,1.531l5.74,7.615c2.526,3.368,6.659,3.368,9.184,0l5.74-7.615a3.881,3.881,0,0,1,3.061-1.531H57.4A19.1,19.1,0,0,0,76.535,45.768V19.057A19.1,19.1,0,0,0,57.4,0M18.769,38.853a6,6,0,1,1,6-6,6,6,0,0,1-6,6m19.5,0a6,6,0,1,1,6-6,6,6,0,0,1-6,6m19.5,0a6,6,0,1,1,6-6,6,6,0,0,1-6,6" fill="#fff"/>
    </g>
  </g>
</svg>
