<svg xmlns="http://www.w3.org/2000/svg" width="82" height="82" viewBox="0 0 82 82">
  <path id="info-round-svgrepo-com" d="M82.583,42.666a41,41,0,1,1-41-41,41,41,0,0,1,41,41Zm-35.1-19.695a5.871,5.871,0,1,0,0,.005ZM45.705,37.907a4.1,4.1,0,1,0-8.2,0V64.852a4.1,4.1,0,0,0,8.2,0Z" transform="translate(-0.583 -1.666)" fill="#fff"/>
</svg>
