<svg id="Grupo_3292" data-name="Grupo 3292" xmlns="http://www.w3.org/2000/svg" xmlns:xlink="http://www.w3.org/1999/xlink" width="16.807" height="21" viewBox="0 0 16.807 21">
  <defs>
    <clipPath id="clip-path">
      <rect id="Retângulo_2313" data-name="Retângulo 2313" width="16.807" height="21" fill="none"/>
    </clipPath>
  </defs>
  <g id="Grupo_3648" data-name="Grupo 3648" transform="translate(0 0)" clip-path="url(#clip-path)">
    <path id="Caminho_123" data-name="Caminho 123" d="M16.244,13.525l0,0c-.746-.746-1.693-2.256-1.693-5.391,0-.006,0,1.678,0,1.672V7.386a6.151,6.151,0,0,0-4.8-6c0-.012,0-.023,0-.035a1.351,1.351,0,0,0-2.7,0c0,.012,0,.023,0,.035a6.15,6.15,0,0,0-4.8,6v.746c0,3.136-.947,4.645-1.693,5.391l0,0a1.752,1.752,0,0,0,1.191,3.039h13.3a1.752,1.752,0,0,0,1.191-3.039" transform="translate(0 0)" fill="#fff"/>
    <path id="Caminho_124" data-name="Caminho 124" d="M32.192,86.923H28.248a.595.595,0,0,0-.57.766,2.655,2.655,0,0,0,5.084,0,.6.6,0,0,0-.57-.766" transform="translate(-21.816 -68.577)" fill="#fff"/>
  </g>
</svg>
