<svg xmlns="http://www.w3.org/2000/svg" width="77.254" height="61.803" viewBox="0 0 77.254 61.803">
  <path id="money-svgrepo-com" d="M71.529,4H9.725A7.725,7.725,0,0,0,2,11.725V58.078A7.725,7.725,0,0,0,9.725,65.8h61.8a7.725,7.725,0,0,0,7.725-7.725V11.725A7.725,7.725,0,0,0,71.529,4ZM38.7,31.039h3.863A9.7,9.7,0,0,1,44.49,50.352h0a3.863,3.863,0,1,1-7.725,0H32.9a3.863,3.863,0,1,1,0-7.725h9.657a1.931,1.931,0,0,0,0-3.863H38.7a9.657,9.657,0,0,1-1.931-19.12v-.193a3.863,3.863,0,0,1,7.725,0h3.863a3.863,3.863,0,0,1,0,7.725H38.7a1.931,1.931,0,0,0,0,3.863Z" transform="translate(-2 -4)" fill="#fff"/>
</svg>
