<svg xmlns="http://www.w3.org/2000/svg" width="76.218" height="81.123" viewBox="0 0 76.218 81.123">
  <g id="Grupo_3574" data-name="Grupo 3574" transform="translate(-741.023 -353.673)">
    <g id="Grupo_3753" data-name="Grupo 3753">
      <path id="money-svgrepo-com" d="M37.85,29.687h3.525a8.856,8.856,0,0,1,1.762,17.624h0a3.525,3.525,0,1,1-7.05,0H32.563a3.525,3.525,0,0,1,0-7.05h8.812a1.762,1.762,0,0,0,0-3.525H37.85a8.812,8.812,0,0,1-1.762-17.448v-.176a3.525,3.525,0,1,1,7.05,0h3.525a3.525,3.525,0,0,1,0,7.05H37.85a1.762,1.762,0,0,0,0,3.525Z" transform="translate(738.574 360.9)" fill="#fff"/>
      <g id="ic-directions-round" transform="translate(741.354 354.708)">
        <path id="Caminho_107" data-name="Caminho 107" d="M36.416,80.088A39.508,39.508,0,0,1,0,55.078a4,4,0,0,1,7.42-2.991c5.74,14.241,20.5,22.389,35.089,19.376C57.146,68.44,67.77,55.009,67.77,39.526S57.146,10.613,42.508,7.589C27.917,4.576,13.16,12.724,7.42,26.965A4,4,0,0,1,0,23.974C7.187,6.144,25.745-4.042,44.127-.245,62.462,3.542,75.77,20.268,75.77,39.526S62.462,75.511,44.127,79.3A38.106,38.106,0,0,1,36.416,80.088Z" transform="translate(0.117 0)" fill="#fff"/>
        <path id="Caminho_108" data-name="Caminho 108" d="M15.941,24.83H4.284A4.722,4.722,0,0,1-.33,20.018V4.58a4,4,0,1,1,8,0V16.83h8.271a4,4,0,0,1,0,8Z" transform="translate(0 4.964)" fill="#fff"/>
      </g>
    </g>
  </g>
</svg>
