<svg xmlns="http://www.w3.org/2000/svg" width="15.114" height="11.017" viewBox="0 0 15.114 11.017">
  <g id="Grupo_3385" data-name="Grupo 3385" transform="translate(-1275.884 -2168.932)">
    <rect id="Retângulo_2242" data-name="Retângulo 2242" width="13.08" height="2.5" rx="1.25" transform="translate(1279.981 2178.181) rotate(-45)" fill="#fff"/>
    <rect id="Retângulo_2243" data-name="Retângulo 2243" width="8.267" height="2.5" rx="1.25" transform="translate(1281.729 2179.949) rotate(-135)" fill="#fff"/>
  </g>
</svg>
