<svg xmlns="http://www.w3.org/2000/svg" width="38.545" height="42" viewBox="0 0 38.545 42">
  <g id="Grupo_3660" data-name="Grupo 3660" transform="translate(-581.668 -815.623)">
    <path id="money-svgrepo-com" d="M36.69,4H5.854A3.885,3.885,0,0,0,2,7.915V31.408a3.885,3.885,0,0,0,3.854,3.916H36.69a3.885,3.885,0,0,0,3.854-3.916V7.915A3.885,3.885,0,0,0,36.69,4ZM20.309,17.7h1.927a4.919,4.919,0,0,1,.964,9.789h0a1.927,1.927,0,1,1-3.854,0H17.418a1.958,1.958,0,0,1,0-3.915h4.818a.979.979,0,0,0,0-1.958H20.309a4.9,4.9,0,0,1-.964-9.691v-.1a1.927,1.927,0,1,1,3.854,0h1.927a1.958,1.958,0,0,1,0,3.915H20.309a.979.979,0,0,0,0,1.958Z" transform="translate(579.668 822.299)" fill="#fff"/>
    <path id="Linha_613" data-name="Linha 613" d="M34.291,5.4H1.253C-.267,5.4-1.5,3.859-1.5,1.952S-.267-1.5,1.253-1.5H34.291c1.521,0,2.753,1.546,2.753,3.452S35.812,5.4,34.291,5.4Z" transform="translate(583.168 817.123)" fill="#fff"/>
  </g>
</svg>
